Flight Landing Distance Analysis
…
## # A tibble: 6 x 11
##   aircraft duration no_pasg speed_ground speed_air height pitch distance
##   <chr>       <dbl>   <dbl>        <dbl>     <dbl>  <dbl> <dbl>    <dbl>
## 1 boeing      162.       72         129.      128.   33.9  4.14    5382.
## 2 boeing      209.       58         125.      126.   40.1  4.65    5147.
## 3 boeing      198.       68         127.      128.   23.8  2.99    5031.
## 4 boeing      155.       67         129.      128.   24.0  5.15    5058.
## 5 boeing       63.3      52         133.      133.   18.2  4.11    5343.
## 6 airbus      132.       60         131.      131.   28.3  3.66    4896.
## # ... with 3 more variables: long.landing <dbl>, risky.landing <dbl>,
## #   id <chr>

head(FAA_U_RmvNA,50)

## # A tibble: 50 x 11
##    aircraft duration no_pasg speed_ground speed_air height pitch distance
##    <chr>       <dbl>   <dbl>        <dbl>     <dbl>  <dbl> <dbl>    <dbl>
##  1 boeing       98.5      53        108.       109.   27.4  4.04    3370.
##  2 boeing      126.       69        102.       103.   27.8  4.12    2988.
##  3 boeing      112.       61         71.1       NA    18.6  4.43    1145.
##  4 boeing      197.       56         85.8       NA    30.7  3.88    1664.
##  5 boeing       90.1      70         59.9       NA    32.4  4.03    1050.
##  6 boeing      138.       55         75.0       NA    41.2  4.20    1627.
##  7 boeing       73.0      54         54.4       NA    24.0  3.84     805.
##  8 boeing       52.9      57         57.1       NA    19.4  4.64     574.
##  9 boeing      156.       61         85.4       NA    35.4  4.23    1699.
## 10 boeing      177.       56         61.8       NA    36.7  4.18    1138.
## # ... with 40 more rows, and 3 more variables: long.landing <dbl>,
## #   risky.landing <dbl>, id <chr>
…
